80100000 .text
80107b00 .rodata
80109000 .data
8010b520 .bss
00000000 .debug_line
00000000 .debug_info
00000000 .debug_abbrev
00000000 .debug_aranges
00000000 .debug_str
00000000 .debug_loc
00000000 .debug_ranges
00000000 .comment
00000000 bio.c
00000000 console.c
8010b540 cons
8010b578 panicked
80100410 consputc.part.0
801005a0 printint
80107b70 digits.1595
8010b520 last_index.1704
00000000 exec.c
00000000 file.c
00000000 fs.c
80101700 bfree
80101780 balloc
80101890 iget
80101980 bmap
801022c0 namex
00000000 ide.c
801025c0 idestart
8010b5a0 idelock
8010b580 havedisk1
8010b584 idequeue
00000000 ioapic.c
00000000 kalloc.c
00000000 kbd.c
8010b5d4 shift.1435
80107ea0 shiftcode
80107da0 togglecode
80107d80 charcode.1436
80109200 normalmap
80109100 shiftmap
80109000 ctlmap
00000000 lapic.c
00000000 log.c
801030e0 install_trans
80103180 write_head
00000000 main.c
80103530 mpmain
80103570 mpenter
00000000 mp.c
801036c0 mpsearch1
00000000 picirq.c
00000000 pipe.c
00000000 proc.c
80103ce0 allocproc
8010b000 first.1647
8010b608 initproc
80108164 states.1673
00000000 sleeplock.c
00000000 spinlock.c
00000000 string.c
00000000 syscall.c
801081e0 syscalls
00000000 sysfile.c
801052f0 create
80105490 argfd.constprop.0
00000000 sysproc.c
00000000 trap.c
00000000 uart.c
801065c0 uartgetc
8010b60c uart
801065f0 uartputc.part.0
00000000 vm.c
801071c0 walkpgdir
80107240 mappages
801072d0 deallocuvm.part.0
8010b420 kmap
80100290 consoleread
80107113 vector242
80106b6a vector119
8010000c entry
80106a4a vector87
80106a41 vector86
80105070 safestrcpy
80105630 sys_close
8010717f vector251
80106a6e vector91
80106864 vector33
80106d53 vector162
80104450 yield
80113c00 log
80113bc0 kmem
80106fb7 vector213
80106b07 vector108
80104a00 sem_release
80106640 uartinit
801068be vector43
80102e10 lapiceoi
80106270 sys_multiple_acquire
801060b0 sys_find_next_prime_num
80106d77 vector165
80106e67 vector185
801028d0 ioapicinit
80106b46 vector115
80101540 fileread
80106b85 vector122
80105f80 sys_sbrk
80113ce0 ioapicid
80106d0b vector156
80107137 vector245
80113bb4 ioapic
80106e97 vector189
80106788 vector7
80106960 vector61
80106813 vector24
80106b22 vector111
80106f1b vector200
80106996 vector67
80106c33 vector138
801069d5 vector74
80104250 sched
80104f50 memmove
8010693c vector57
80105280 syscall
80106fc3 vector214
80106ab6 vector99
80103ec0 cpuid
801020b0 writei
80106c57 vector141
80105ee0 sys_fork
8010c620 bcache
80106dcb vector172
80107107 vector241
80104c40 getcallerpcs
80105b40 sys_mkdir
80107197 vector253
80106764 vector3
8010675b vector2
801021e0 namecmp
8010705f vector227
80106f93 vector210
80105240 argstr
8010703b vector224
801068ac vector41
801006b0 cprintf
801013c0 filedup
80102580 namei
801067f8 vector21
80100040 binit
80106e07 vector177
80106b61 vector118
801069b1 vector70
801069a8 vector69
801070d7 vector237
8010697b vector64
8010682e vector27
80106beb vector132
80106e73 vector186
80105550 sys_read
80106fe7 vector217
801050f0 fetchint
80107870 setupkvm
80104fb0 memcpy
801077f0 freevm
80106752 vector1
80106e13 vector178
80106891 vector38
801029c0 kfree
801070e3 vector238
80103e50 mycpu
80101de0 iput
80106bf7 vector133
801069cc vector73
80106c7b vector144
801071a3 vector254
80101a50 readsb
8010b004 nextpid
80106ac8 vector101
80106f9f vector211
80103740 mpinit
80106130 sys_get_most_caller
80106de3 vector174
8010711f vector243
80101330 fileinit
80104c20 initlock
80106bbb vector128
80107a70 copyout
80106a14 vector81
801044a0 sleep
80102e30 microdelay
801067b6 vector13
80106906 vector51
801067cd vector16
80110f80 input
801070fb vector240
80106921 vector54
801067e6 vector19
80111020 saved_cmd
80106a77 vector92
8010712b vector244
80101f80 stati
80106c4b vector140
80105f20 sys_kill
801068d0 vector45
80106a02 vector79
80103a50 pipeclose
80107077 vector229
80106d23 vector158
80105680 sys_fstat
80100640 consolewrite
8010689a vector39
80106d9b vector168
801032f0 end_op
80106876 vector35
80106b34 vector113
80102a60 freerange
80106ba0 vector125
80107690 allocuvm
801062ab trapret
80106fdb vector216
80106972 vector63
80106825 vector26
80106ec7 vector193
80102cf0 lapicinit
80106eeb vector196
80106f87 vector209
8010676d vector4
80106db3 vector170
8010b610 stack
80106c1b vector136
801067a1 vector10
80106f63 vector206
80101d90 iunlock
80105fd0 sys_sleep
801071af vector255
80106e37 vector181
8010b5e0 indexes
8010694e vector59
80106a38 vector85
80106a2f vector84
80104840 find_next_prime_num
80104980 sem_acquire
80106e4f vector183
80106d2f vector159
80106fab vector212
801056d0 sys_link
801068e2 vector47
8010706b vector228
801068b5 vector42
80106b3d vector114
801048c0 get_most_caller
80107a30 uva2ka
80106def vector175
80106c6f vector143
80101350 filealloc
80104660 wakeup
80106bd3 vector130
80107143 vector246
80106798 vector9
80106c63 vector142
80106abf vector100
80106f27 vector201
80107910 clearpteu
80103ee0 myproc
801062c0 tvinit
80106957 vector60
8010680a vector23
80101c80 idup
801070cb vector236
80102cd0 kbdintr
80100b30 move_forward
80105a00 sys_open
8010708f vector231
8010698d vector66
80106840 vector29
80101fb0 readi
80106c0f vector135
80100c20 consoleintr
801046d0 kill
801061f0 sys_sem_acquire
801069f0 vector77
80101b30 ialloc
80106e2b vector180
801142a0 semaphores
801186e4 kpgdir
80106f7b vector208
80102ee0 cmostime
80106730 uartintr
80106aad vector98
80106aa4 vector97
80106dfb vector176
80106ed3 vector194
8010685b vector32
801186e8 end
80106f0f vector199
80106bdf vector131
8010718b vector252
801015e0 filewrite
80106749 vector0
80105190 argint
80100fd0 exec
80106c87 vector145
801055c0 sys_write
80104e60 release
80105130 fetchstr
80106afe vector107
801068a3 vector40
80104560 wait
80106ad1 vector102
80104930 sem_init
8010a000 entrypgdir
0010000c _start
80106933 vector56
8010699f vector68
8010677f vector6
8010b48c _binary_initcode_end
80100000 multiboot_header
80106bc7 vector129
801041b0 scheduler
80102200 dirlookup
80106ef7 vector197
80101410 fileclose
80103280 begin_op
80106cdb vector152
801078f0 kvmalloc
80107083 vector230
80104fc0 strncmp
80106888 vector37
80106f57 vector205
80106d47 vector161
80117ea0 tickslock
80103af0 pipewrite
80105010 strncpy
801069ba vector71
80107940 copyuvm
80111540 ftable
80106d3b vector160
801051e0 argptr
80106fcf vector215
80106d17 vector157
801054e0 sys_dup
80106b2b vector112
80100390 panic
80103de0 forkret
80106e43 vector182
801067af vector12
80104f00 memcmp
80102bf0 kbdgetc
80106b10 vector109
801067ef vector20
80104890 get_call_count
80104090 fork
80106918 vector53
801067dd vector18
0000008a _binary_entryother_size
80113d00 cpus
80104b80 releasesleep
80106a92 vector95
80104d50 holding
80111f40 sb
80104da0 acquire
80107053 vector226
801025a0 nameiparent
801068f4 vector49
801068c7 vector44
80113bfc lapic
801069f9 vector78
80106293 alltraps
80106dd7 vector173
80106b58 vector117
80106a1d vector82
80107023 vector222
80106791 vector8
80106cb7 vector149
80101bf0 iupdate
80109000 data
80104eb0 memset
8010709b vector232
80103590 main
80107410 switchkvm
80106af5 vector106
8010700b vector220
80106a65 vector90
80106d5f vector163
801070b3 vector234
80103460 log_write
80104b20 acquiresleep
80105820 sys_unlink
80106969 vector62
8010681c vector25
80106f03 vector198
80106b73 vector120
8010b48c _binary_entryother_start
80102ab0 kinit1
801068fd vector50
801067c4 vector15
80106ccf vector151
80106a26 vector83
80106a5c vector89
80106a53 vector88
80100a00 move_cursor
80106370 trap
80106080 sys_uptime
80106e1f vector179
8010686d vector34
801068d9 vector46
80106170 sys_wait_for_process
80106c03 vector134
8010702f vector223
80117ee0 idt
80106ff3 vector218
80103e30 pinit
80100860 save_command
801077c0 deallocuvm
80107047 vector225
80102df0 lapicid
80106e7f vector187
80104010 growproc
80104bc0 holdingsleep
80114280 ncpu
80106849 vector30
80103f10 userinit
801000d0 bread
80106bb2 vector127
80103bf0 piperead
801186e0 ticks
80106ebb vector192
80106d83 vector166
80100f80 consoleinit
801069e7 vector76
801069de vector75
80102730 ideintr
80106edf vector195
80106cc3 vector150
80106945 vector58
8010715b vector248
80106b8e vector123
80104a90 multiple_acquire
80106a9b vector96
80106852 vector31
80106f3f vector203
80106c3f vector139
80106ce7 vector153
80106d6b vector164
80104760 procdump
80106b7c vector121
80106700 uartputc
80106776 vector5
80106d8f vector167
80106cff vector155
80107167 vector249
801001f0 brelse
80107173 vector250
80106b97 vector124
80106b19 vector110
80106f4b vector204
80101cb0 ilock
80105d00 sys_exec
80106230 sys_sem_release
80106c27 vector137
8010b460 _binary_initcode_start
801050d3 swtch
8010714f vector247
80106801 vector22
80106f33 vector202
80107380 seginit
80101f50 iunlockput
801069c3 vector72
8010692a vector55
80106ba9 vector126
80106984 vector65
80106837 vector28
8010b516 _binary_entryother_end
80106da7 vector169
801001b0 bwrite
801070a7 vector233
80106340 idtinit
80104310 exit
80105f10 sys_wait
80105ef0 sys_exit
80104900 wait_for_process
801024c0 dirlink
0000002c _binary_initcode_size
80106c9f vector147
80104ae0 initsleeplock
801026a0 ideinit
801075c0 loaduvm
80106ae3 vector104
80106b4f vector116
80114660 ptable
80102980 ioapicenable
80104cf0 popcli
8010b008 vectors
8010690f vector52
801067d6 vector17
80106e5b vector184
801050b0 strlen
801060f0 sys_get_call_count
80105e00 sys_pipe
80101a90 iinit
80103920 picinit
80106f6f vector207
80107540 inituvm
80106ea3 vector190
801061a0 sys_sem_init
801070ef vector239
80106a89 vector94
80106a80 vector93
80100910 show_last_command
801031e0 initlog
80106e8b vector188
801068eb vector48
801027d0 iderw
80106fff vector219
80106cab vector148
80107017 vector221
80102b80 kalloc
80111ee0 devsw
80105f60 sys_getpid
80106a0b vector80
80106dbf vector171
80106cf3 vector154
8010687f vector36
80103940 pipealloc
80100a90 move_backward
801070bf vector235
80106aec vector105
80105c50 sys_chdir
80111f60 icache
80106c93 vector146
80106eaf vector191
80106ada vector103
80105bb0 sys_mknod
80102e40 lapicstartap
80107430 switchuvm
80104ca0 pushcli
80102b20 kinit2
801067a8 vector11
801067bd vector14
801014f0 filestat
